solid OpenSCAD_Model
  facet normal 0 1 -0
    outer loop
      vertex 20 40 -2
      vertex 0 40 1
      vertex 20 40 1
    endloop
  endfacet
  facet normal 0 1 0
    outer loop
      vertex 0 40 1
      vertex 20 40 -2
      vertex 0 40 -2
    endloop
  endfacet
  facet normal -0 0 1
    outer loop
      vertex 0 20 0
      vertex 20 0 0
      vertex 20 20 0
    endloop
  endfacet
  facet normal 0 0 1
    outer loop
      vertex 20 0 0
      vertex 0 20 0
      vertex 0 0 0
    endloop
  endfacet
  facet normal 1 -0 0
    outer loop
      vertex 20 20 0
      vertex 20 40 -2
      vertex 20 40 1
    endloop
  endfacet
  facet normal 1 0 0
    outer loop
      vertex 20 0 -2
      vertex 20 20 0
      vertex 20 0 0
    endloop
  endfacet
  facet normal 1 0 0
    outer loop
      vertex 20 20 0
      vertex 20 0 -2
      vertex 20 40 -2
    endloop
  endfacet
  facet normal 0 -0.0499376 0.998752
    outer loop
      vertex 0 40 1
      vertex 20 20 0
      vertex 20 40 1
    endloop
  endfacet
  facet normal 0 -0.0499376 0.998752
    outer loop
      vertex 20 20 0
      vertex 0 40 1
      vertex 0 20 0
    endloop
  endfacet
  facet normal -1 0 0
    outer loop
      vertex 0 40 -2
      vertex 0 20 0
      vertex 0 40 1
    endloop
  endfacet
  facet normal -1 0 0
    outer loop
      vertex 0 0 -2
      vertex 0 20 0
      vertex 0 40 -2
    endloop
  endfacet
  facet normal -1 -0 0
    outer loop
      vertex 0 20 0
      vertex 0 0 -2
      vertex 0 0 0
    endloop
  endfacet
  facet normal 0 0 -1
    outer loop
      vertex 0 0 -2
      vertex 20 40 -2
      vertex 20 0 -2
    endloop
  endfacet
  facet normal -0 0 -1
    outer loop
      vertex 20 40 -2
      vertex 0 0 -2
      vertex 0 40 -2
    endloop
  endfacet
  facet normal 0 -1 0
    outer loop
      vertex 0 0 -2
      vertex 20 0 0
      vertex 0 0 0
    endloop
  endfacet
  facet normal 0 -1 -0
    outer loop
      vertex 20 0 0
      vertex 0 0 -2
      vertex 20 0 -2
    endloop
  endfacet
endsolid OpenSCAD_Model
